Previsão ACs - Resultados • previsaoAC
…
# ggsave(filename = "3.output/2.figures/G3.png")

modelos %>% 
  group_by(anomes) %>% 
  mutate(min = armse == min(armse)) %>%
  filter(min == TRUE)

## # A tibble: 30 x 5
## # Groups:   anomes [30]
##    anomes  modelo  rmse armse min  
##    <chr>   <chr>  <dbl> <dbl> <lgl>
##  1 2017-12 M03     4.43  4.43 TRUE 
##  2 2018-01 M02     2.43  7.53 TRUE 
##  3 2018-02 M02     3.49 11.0  TRUE 
##  4 2018-03 M09     3.33 14.4  TRUE 
##  5 2018-04 M09     3.16 17.6  TRUE 
##  6 2018-05 M09     4.45 22.0  TRUE 
##  7 2018-06 M09     4.84 26.9  TRUE 
##  8 2018-07 M09     5.32 32.2  TRUE 
##  9 2018-08 M09     5.33 37.5  TRUE 
## 10 2018-09 M09     6.74 44.3  TRUE 
## # … with 20 more rows
…
